LOG_FILE.log
UVM_INFO /home/runner/pipo_scoreboard.sv(51) @ 0: uvm_test_top.env_h.scoreboard_h [write_drv STIM] in=  0  rst=1
UVM_INFO /home/runner/pipo_scoreboard.sv(73) @ 5: uvm_test_top.env_h.scoreboard_h [write_mon OUT ] in=  0  rst=0 || out=  x 
UVM_INFO /home/runner/pipo_scoreboard.sv(51) @ 5: uvm_test_top.env_h.scoreboard_h [write_drv STIM] in= 93  rst=0
UVM_INFO /home/runner/pipo_scoreboard.sv(73) @ 15: uvm_test_top.env_h.scoreboard_h [write_mon OUT ] in=  0  rst=1 || out=  0 
UVM_INFO /home/runner/pipo_scoreboard.sv(51) @ 15: uvm_test_top.env_h.scoreboard_h [write_drv STIM] in=202  rst=0
UVM_INFO /home/runner/pipo_scoreboard.sv(73) @ 25: uvm_test_top.env_h.scoreboard_h [write_mon OUT ] in= 93  rst=0 || out=  0 
UVM_INFO /home/runner/pipo_scoreboard.sv(89) @ 25: uvm_test_top.env_h.scoreboard_h [
 [PASS ] in= 93  rst=0 || out=  0 
UVM_INFO /home/runner/pipo_scoreboard.sv(51) @ 25: uvm_test_top.env_h.scoreboard_h [write_drv STIM] in=164  rst=0
UVM_INFO /home/runner/pipo_scoreboard.sv(73) @ 35: uvm_test_top.env_h.scoreboard_h [write_mon OUT ] in=202  rst=0 || out= 93 
UVM_INFO /home/runner/pipo_scoreboard.sv(89) @ 35: uvm_test_top.env_h.scoreboard_h [
 [PASS ] in=202  rst=0 || out= 93 
UVM_INFO /home/runner/pipo_scoreboard.sv(51) @ 35: uvm_test_top.env_h.scoreboard_h [write_drv STIM] in=235  rst=0
UVM_INFO /home/runner/pipo_scoreboard.sv(73) @ 45: uvm_test_top.env_h.scoreboard_h [write_mon OUT ] in=164  rst=0 || out=202 
UVM_INFO /home/runner/pipo_scoreboard.sv(89) @ 45: uvm_test_top.env_h.scoreboard_h [
 [PASS ] in=164  rst=0 || out=202 
UVM_INFO /home/runner/pipo_scoreboard.sv(51) @ 45: uvm_test_top.env_h.scoreboard_h [write_drv STIM] in=159  rst=0
UVM_INFO /home/runner/pipo_scoreboard.sv(73) @ 55: uvm_test_top.env_h.scoreboard_h [write_mon OUT ] in=235  rst=0 || out=164 
UVM_INFO /home/runner/pipo_scoreboard.sv(89) @ 55: uvm_test_top.env_h.scoreboard_h [
 [PASS ] in=235  rst=0 || out=164 
UVM_INFO /home/runner/pipo_scoreboard.sv(51) @ 55: uvm_test_top.env_h.scoreboard_h [write_drv STIM] in=192  rst=0
UVM_INFO /home/runner/pipo_scoreboard.sv(73) @ 65: uvm_test_top.env_h.scoreboard_h [write_mon OUT ] in=159  rst=0 || out=235 
UVM_INFO /home/runner/pipo_scoreboard.sv(89) @ 65: uvm_test_top.env_h.scoreboard_h [
 [PASS ] in=159  rst=0 || out=235 
UVM_INFO /home/runner/pipo_scoreboard.sv(51) @ 65: uvm_test_top.env_h.scoreboard_h [write_drv STIM] in= 78  rst=0
UVM_INFO /home/runner/pipo_scoreboard.sv(73) @ 75: uvm_test_top.env_h.scoreboard_h [write_mon OUT ] in=192  rst=0 || out=159 
UVM_INFO /home/runner/pipo_scoreboard.sv(89) @ 75: uvm_test_top.env_h.scoreboard_h [
 [PASS ] in=192  rst=0 || out=159 
UVM_INFO /home/runner/pipo_scoreboard.sv(51) @ 75: uvm_test_top.env_h.scoreboard_h [write_drv STIM] in= 73  rst=0
UVM_INFO /home/runner/pipo_scoreboard.sv(73) @ 85: uvm_test_top.env_h.scoreboard_h [write_mon OUT ] in= 78  rst=0 || out=192 
UVM_INFO /home/runner/pipo_scoreboard.sv(89) @ 85: uvm_test_top.env_h.scoreboard_h [
 [PASS ] in= 78  rst=0 || out=192 
UVM_INFO /home/runner/pipo_scoreboard.sv(51) @ 85: uvm_test_top.env_h.scoreboard_h [write_drv STIM] in=177  rst=0
UVM_INFO /home/runner/pipo_scoreboard.sv(73) @ 95: uvm_test_top.env_h.scoreboard_h [write_mon OUT ] in= 73  rst=0 || out= 78 
UVM_INFO /home/runner/pipo_scoreboard.sv(89) @ 95: uvm_test_top.env_h.scoreboard_h [
 [PASS ] in= 73  rst=0 || out= 78 
UVM_INFO /home/runner/pipo_scoreboard.sv(51) @ 95: uvm_test_top.env_h.scoreboard_h [write_drv STIM] in=134  rst=0
UVM_INFO /home/runner/pipo_scoreboard.sv(73) @ 105: uvm_test_top.env_h.scoreboard_h [write_mon OUT ] in=177  rst=0 || out= 73 
UVM_INFO /home/runner/pipo_scoreboard.sv(89) @ 105: uvm_test_top.env_h.scoreboard_h [
 [PASS ] in=177  rst=0 || out= 73 
UVM_INFO /home/runner/pipo_scoreboard.sv(51) @ 105: uvm_test_top.env_h.scoreboard_h [write_drv STIM] in=200  rst=0
UVM_INFO /home/runner/pipo_scoreboard.sv(73) @ 115: uvm_test_top.env_h.scoreboard_h [write_mon OUT ] in=134  rst=0 || out=177 
UVM_INFO /home/runner/pipo_scoreboard.sv(89) @ 115: uvm_test_top.env_h.scoreboard_h [
 [PASS ] in=134  rst=0 || out=177 
UVM_INFO /home/runner/pipo_scoreboard.sv(51) @ 115: uvm_test_top.env_h.scoreboard_h [write_drv STIM] in=119  rst=0
UVM_INFO /home/runner/pipo_scoreboard.sv(73) @ 125: uvm_test_top.env_h.scoreboard_h [write_mon OUT ] in=200  rst=0 || out=134 
UVM_INFO /home/runner/pipo_scoreboard.sv(89) @ 125: uvm_test_top.env_h.scoreboard_h [
 [PASS ] in=200  rst=0 || out=134 
UVM_INFO /home/runner/pipo_scoreboard.sv(51) @ 125: uvm_test_top.env_h.scoreboard_h [write_drv STIM] in=147  rst=0
UVM_INFO /home/runner/pipo_scoreboard.sv(73) @ 135: uvm_test_top.env_h.scoreboard_h [write_mon OUT ] in=119  rst=0 || out=200 
UVM_INFO /home/runner/pipo_scoreboard.sv(89) @ 135: uvm_test_top.env_h.scoreboard_h [
 [PASS ] in=119  rst=0 || out=200 
UVM_INFO /home/runner/pipo_scoreboard.sv(51) @ 135: uvm_test_top.env_h.scoreboard_h [write_drv STIM] in= 28  rst=0
UVM_INFO /home/runner/pipo_scoreboard.sv(73) @ 145: uvm_test_top.env_h.scoreboard_h [write_mon OUT ] in=147  rst=0 || out=119 
UVM_INFO /home/runner/pipo_scoreboard.sv(89) @ 145: uvm_test_top.env_h.scoreboard_h [
 [PASS ] in=147  rst=0 || out=119 
UVM_INFO /home/runner/pipo_scoreboard.sv(51) @ 145: uvm_test_top.env_h.scoreboard_h [write_drv STIM] in= 18  rst=0
UVM_INFO /home/runner/pipo_scoreboard.sv(73) @ 155: uvm_test_top.env_h.scoreboard_h [write_mon OUT ] in= 28  rst=0 || out=147 
UVM_INFO /home/runner/pipo_scoreboard.sv(89) @ 155: uvm_test_top.env_h.scoreboard_h [
 [PASS ] in= 28  rst=0 || out=147 
UVM_INFO /home/runner/pipo_scoreboard.sv(51) @ 155: uvm_test_top.env_h.scoreboard_h [write_drv STIM] in=117  rst=0
UVM_INFO /home/runner/pipo_scoreboard.sv(73) @ 165: uvm_test_top.env_h.scoreboard_h [write_mon OUT ] in= 18  rst=0 || out= 28 
UVM_INFO /home/runner/pipo_scoreboard.sv(89) @ 165: uvm_test_top.env_h.scoreboard_h [
 [PASS ] in= 18  rst=0 || out= 28 
UVM_INFO /home/runner/pipo_scoreboard.sv(51) @ 165: uvm_test_top.env_h.scoreboard_h [write_drv STIM] in= 69  rst=0
UVM_INFO /home/runner/pipo_scoreboard.sv(73) @ 175: uvm_test_top.env_h.scoreboard_h [write_mon OUT ] in=117  rst=0 || out= 18 
UVM_INFO /home/runner/pipo_scoreboard.sv(89) @ 175: uvm_test_top.env_h.scoreboard_h [
 [PASS ] in=117  rst=0 || out= 18 
UVM_INFO /home/runner/pipo_scoreboard.sv(51) @ 175: uvm_test_top.env_h.scoreboard_h [write_drv STIM] in=130  rst=0
UVM_INFO /home/runner/pipo_scoreboard.sv(73) @ 185: uvm_test_top.env_h.scoreboard_h [write_mon OUT ] in= 69  rst=0 || out=117 
UVM_INFO /home/runner/pipo_scoreboard.sv(89) @ 185: uvm_test_top.env_h.scoreboard_h [
 [PASS ] in= 69  rst=0 || out=117 
UVM_INFO /home/runner/pipo_scoreboard.sv(51) @ 185: uvm_test_top.env_h.scoreboard_h [write_drv STIM] in= 44  rst=0
UVM_INFO /home/runner/pipo_scoreboard.sv(73) @ 195: uvm_test_top.env_h.scoreboard_h [write_mon OUT ] in=130  rst=0 || out= 69 
UVM_INFO /home/runner/pipo_scoreboard.sv(89) @ 195: uvm_test_top.env_h.scoreboard_h [
 [PASS ] in=130  rst=0 || out= 69 
UVM_INFO /home/runner/pipo_scoreboard.sv(51) @ 195: uvm_test_top.env_h.scoreboard_h [write_drv STIM] in= 67  rst=0
UVM_INFO /home/runner/pipo_scoreboard.sv(73) @ 205: uvm_test_top.env_h.scoreboard_h [write_mon OUT ] in= 44  rst=0 || out=130 
UVM_INFO /home/runner/pipo_scoreboard.sv(89) @ 205: uvm_test_top.env_h.scoreboard_h [
 [PASS ] in= 44  rst=0 || out=130 
UVM_INFO /home/runner/pipo_scoreboard.sv(51) @ 205: uvm_test_top.env_h.scoreboard_h [write_drv STIM] in=199  rst=0
UVM_INFO /home/runner/pipo_scoreboard.sv(73) @ 215: uvm_test_top.env_h.scoreboard_h [write_mon OUT ] in= 67  rst=0 || out= 44 
UVM_INFO /home/runner/pipo_scoreboard.sv(89) @ 215: uvm_test_top.env_h.scoreboard_h [
 [PASS ] in= 67  rst=0 || out= 44 
UVM_INFO /home/runner/pipo_scoreboard.sv(51) @ 215: uvm_test_top.env_h.scoreboard_h [write_drv STIM] in=184  rst=0
UVM_INFO /home/runner/pipo_scoreboard.sv(73) @ 225: uvm_test_top.env_h.scoreboard_h [write_mon OUT ] in=199  rst=0 || out= 67 
UVM_INFO /home/runner/pipo_scoreboard.sv(89) @ 225: uvm_test_top.env_h.scoreboard_h [
 [PASS ] in=199  rst=0 || out= 67 
UVM_INFO /home/runner/pipo_scoreboard.sv(51) @ 225: uvm_test_top.env_h.scoreboard_h [write_drv STIM] in= 22  rst=0
UVM_INFO /home/runner/pipo_scoreboard.sv(73) @ 235: uvm_test_top.env_h.scoreboard_h [write_mon OUT ] in=184  rst=0 || out=199 
UVM_INFO /home/runner/pipo_scoreboard.sv(89) @ 235: uvm_test_top.env_h.scoreboard_h [
 [PASS ] in=184  rst=0 || out=199 
UVM_INFO /home/runner/pipo_scoreboard.sv(51) @ 235: uvm_test_top.env_h.scoreboard_h [write_drv STIM] in=225  rst=0
UVM_INFO /home/runner/pipo_scoreboard.sv(73) @ 245: uvm_test_top.env_h.scoreboard_h [write_mon OUT ] in= 22  rst=0 || out=184 
UVM_INFO /home/runner/pipo_scoreboard.sv(89) @ 245: uvm_test_top.env_h.scoreboard_h [
 [PASS ] in= 22  rst=0 || out=184 
UVM_INFO /home/runner/pipo_scoreboard.sv(51) @ 245: uvm_test_top.env_h.scoreboard_h [write_drv STIM] in= 25  rst=0
UVM_INFO /home/runner/pipo_scoreboard.sv(73) @ 255: uvm_test_top.env_h.scoreboard_h [write_mon OUT ] in=225  rst=0 || out= 22 
UVM_INFO /home/runner/pipo_scoreboard.sv(89) @ 255: uvm_test_top.env_h.scoreboard_h [
 [PASS ] in=225  rst=0 || out= 22 
UVM_INFO /home/runner/pipo_scoreboard.sv(51) @ 255: uvm_test_top.env_h.scoreboard_h [write_drv STIM] in=190  rst=0
UVM_INFO /home/runner/pipo_scoreboard.sv(73) @ 265: uvm_test_top.env_h.scoreboard_h [write_mon OUT ] in= 25  rst=0 || out=225 
UVM_INFO /home/runner/pipo_scoreboard.sv(89) @ 265: uvm_test_top.env_h.scoreboard_h [
 [PASS ] in= 25  rst=0 || out=225 
UVM_INFO /home/runner/pipo_scoreboard.sv(51) @ 265: uvm_test_top.env_h.scoreboard_h [write_drv STIM] in=208  rst=0
UVM_INFO /home/runner/pipo_scoreboard.sv(73) @ 275: uvm_test_top.env_h.scoreboard_h [write_mon OUT ] in=190  rst=0 || out= 25 
UVM_INFO /home/runner/pipo_scoreboard.sv(89) @ 275: uvm_test_top.env_h.scoreboard_h [
 [PASS ] in=190  rst=0 || out= 25 
UVM_INFO /home/runner/pipo_scoreboard.sv(51) @ 275: uvm_test_top.env_h.scoreboard_h [write_drv STIM] in= 79  rst=0
UVM_INFO /home/runner/pipo_scoreboard.sv(73) @ 285: uvm_test_top.env_h.scoreboard_h [write_mon OUT ] in=208  rst=0 || out=190 
UVM_INFO /home/runner/pipo_scoreboard.sv(89) @ 285: uvm_test_top.env_h.scoreboard_h [
 [PASS ] in=208  rst=0 || out=190 
UVM_INFO /home/runner/pipo_scoreboard.sv(51) @ 285: uvm_test_top.env_h.scoreboard_h [write_drv STIM] in= 59  rst=0
UVM_INFO /home/runner/pipo_scoreboard.sv(73) @ 295: uvm_test_top.env_h.scoreboard_h [write_mon OUT ] in= 79  rst=0 || out=208 
UVM_INFO /home/runner/pipo_scoreboard.sv(89) @ 295: uvm_test_top.env_h.scoreboard_h [
 [PASS ] in= 79  rst=0 || out=208 
UVM_INFO /home/runner/pipo_scoreboard.sv(51) @ 295: uvm_test_top.env_h.scoreboard_h [write_drv STIM] in=148  rst=0
UVM_INFO /home/runner/pipo_scoreboard.sv(73) @ 305: uvm_test_top.env_h.scoreboard_h [write_mon OUT ] in= 59  rst=0 || out= 79 
UVM_INFO /home/runner/pipo_scoreboard.sv(89) @ 305: uvm_test_top.env_h.scoreboard_h [
 [PASS ] in= 59  rst=0 || out= 79 
UVM_INFO /home/runner/pipo_scoreboard.sv(51) @ 305: uvm_test_top.env_h.scoreboard_h [write_drv STIM] in= 90  rst=0
UVM_INFO /home/runner/pipo_scoreboard.sv(73) @ 315: uvm_test_top.env_h.scoreboard_h [write_mon OUT ] in=148  rst=0 || out= 59 
UVM_INFO /home/runner/pipo_scoreboard.sv(89) @ 315: uvm_test_top.env_h.scoreboard_h [
 [PASS ] in=148  rst=0 || out= 59 
UVM_INFO /home/runner/pipo_scoreboard.sv(51) @ 315: uvm_test_top.env_h.scoreboard_h [write_drv STIM] in=141  rst=0
UVM_INFO /home/runner/pipo_scoreboard.sv(73) @ 325: uvm_test_top.env_h.scoreboard_h [write_mon OUT ] in= 90  rst=0 || out=148 
UVM_INFO /home/runner/pipo_scoreboard.sv(89) @ 325: uvm_test_top.env_h.scoreboard_h [
 [PASS ] in= 90  rst=0 || out=148 
UVM_INFO /home/runner/pipo_scoreboard.sv(51) @ 325: uvm_test_top.env_h.scoreboard_h [write_drv STIM] in= 45  rst=0
UVM_INFO /home/runner/pipo_scoreboard.sv(73) @ 335: uvm_test_top.env_h.scoreboard_h [write_mon OUT ] in=141  rst=0 || out= 90 
UVM_INFO /home/runner/pipo_scoreboard.sv(89) @ 335: uvm_test_top.env_h.scoreboard_h [
 [PASS ] in=141  rst=0 || out= 90 
UVM_INFO /home/runner/pipo_scoreboard.sv(51) @ 335: uvm_test_top.env_h.scoreboard_h [write_drv STIM] in= 58  rst=0
UVM_INFO /home/runner/pipo_scoreboard.sv(73) @ 345: uvm_test_top.env_h.scoreboard_h [write_mon OUT ] in= 45  rst=0 || out=141 
UVM_INFO /home/runner/pipo_scoreboard.sv(89) @ 345: uvm_test_top.env_h.scoreboard_h [
 [PASS ] in= 45  rst=0 || out=141 
UVM_INFO /home/runner/pipo_scoreboard.sv(51) @ 345: uvm_test_top.env_h.scoreboard_h [write_drv STIM] in=180  rst=0
UVM_INFO /home/runner/pipo_scoreboard.sv(73) @ 355: uvm_test_top.env_h.scoreboard_h [write_mon OUT ] in= 58  rst=0 || out= 45 
UVM_INFO /home/runner/pipo_scoreboard.sv(89) @ 355: uvm_test_top.env_h.scoreboard_h [
 [PASS ] in= 58  rst=0 || out= 45 
UVM_INFO /home/runner/pipo_scoreboard.sv(51) @ 355: uvm_test_top.env_h.scoreboard_h [write_drv STIM] in=155  rst=0
UVM_INFO /home/runner/pipo_scoreboard.sv(73) @ 365: uvm_test_top.env_h.scoreboard_h [write_mon OUT ] in=180  rst=0 || out= 58 
UVM_INFO /home/runner/pipo_scoreboard.sv(89) @ 365: uvm_test_top.env_h.scoreboard_h [
 [PASS ] in=180  rst=0 || out= 58 
UVM_INFO /home/runner/pipo_scoreboard.sv(51) @ 365: uvm_test_top.env_h.scoreboard_h [write_drv STIM] in=239  rst=0
UVM_INFO /home/runner/pipo_scoreboard.sv(73) @ 375: uvm_test_top.env_h.scoreboard_h [write_mon OUT ] in=155  rst=0 || out=180 
UVM_INFO /home/runner/pipo_scoreboard.sv(89) @ 375: uvm_test_top.env_h.scoreboard_h [
 [PASS ] in=155  rst=0 || out=180 
UVM_INFO /home/runner/pipo_scoreboard.sv(51) @ 375: uvm_test_top.env_h.scoreboard_h [write_drv STIM] in=176  rst=0
UVM_INFO /home/runner/pipo_scoreboard.sv(73) @ 385: uvm_test_top.env_h.scoreboard_h [write_mon OUT ] in=239  rst=0 || out=155 
UVM_INFO /home/runner/pipo_scoreboard.sv(89) @ 385: uvm_test_top.env_h.scoreboard_h [
 [PASS ] in=239  rst=0 || out=155 
UVM_INFO /home/runner/pipo_scoreboard.sv(51) @ 385: uvm_test_top.env_h.scoreboard_h [write_drv STIM] in=222  rst=0
UVM_INFO /home/runner/pipo_scoreboard.sv(73) @ 395: uvm_test_top.env_h.scoreboard_h [write_mon OUT ] in=176  rst=0 || out=239 
UVM_INFO /home/runner/pipo_scoreboard.sv(89) @ 395: uvm_test_top.env_h.scoreboard_h [
 [PASS ] in=176  rst=0 || out=239 
UVM_INFO /home/runner/pipo_scoreboard.sv(51) @ 395: uvm_test_top.env_h.scoreboard_h [write_drv STIM] in=121  rst=0
UVM_INFO /home/runner/pipo_scoreboard.sv(73) @ 405: uvm_test_top.env_h.scoreboard_h [write_mon OUT ] in=222  rst=0 || out=176 
UVM_INFO /home/runner/pipo_scoreboard.sv(89) @ 405: uvm_test_top.env_h.scoreboard_h [
 [PASS ] in=222  rst=0 || out=176 
UVM_INFO /home/runner/pipo_scoreboard.sv(51) @ 405: uvm_test_top.env_h.scoreboard_h [write_drv STIM] in=129  rst=0
UVM_INFO /home/runner/pipo_scoreboard.sv(73) @ 415: uvm_test_top.env_h.scoreboard_h [write_mon OUT ] in=121  rst=0 || out=222 
UVM_INFO /home/runner/pipo_scoreboard.sv(89) @ 415: uvm_test_top.env_h.scoreboard_h [
 [PASS ] in=121  rst=0 || out=222 
UVM_INFO /home/runner/pipo_scoreboard.sv(51) @ 415: uvm_test_top.env_h.scoreboard_h [write_drv STIM] in=246  rst=0
UVM_INFO /home/runner/pipo_scoreboard.sv(73) @ 425: uvm_test_top.env_h.scoreboard_h [write_mon OUT ] in=129  rst=0 || out=121 
UVM_INFO /home/runner/pipo_scoreboard.sv(89) @ 425: uvm_test_top.env_h.scoreboard_h [
 [PASS ] in=129  rst=0 || out=121 
UVM_INFO /home/runner/pipo_scoreboard.sv(51) @ 425: uvm_test_top.env_h.scoreboard_h [write_drv STIM] in=216  rst=0
UVM_INFO /home/runner/pipo_scoreboard.sv(73) @ 435: uvm_test_top.env_h.scoreboard_h [write_mon OUT ] in=246  rst=0 || out=129 
UVM_INFO /home/runner/pipo_scoreboard.sv(89) @ 435: uvm_test_top.env_h.scoreboard_h [
 [PASS ] in=246  rst=0 || out=129 
UVM_INFO /home/runner/pipo_scoreboard.sv(51) @ 435: uvm_test_top.env_h.scoreboard_h [write_drv STIM] in= 39  rst=0
UVM_INFO /home/runner/pipo_scoreboard.sv(73) @ 445: uvm_test_top.env_h.scoreboard_h [write_mon OUT ] in=216  rst=0 || out=246 
UVM_INFO /home/runner/pipo_scoreboard.sv(89) @ 445: uvm_test_top.env_h.scoreboard_h [
 [PASS ] in=216  rst=0 || out=246 
UVM_INFO /home/runner/pipo_scoreboard.sv(51) @ 445: uvm_test_top.env_h.scoreboard_h [write_drv STIM] in=227  rst=0
UVM_INFO /home/runner/pipo_scoreboard.sv(73) @ 455: uvm_test_top.env_h.scoreboard_h [write_mon OUT ] in= 39  rst=0 || out=216 
UVM_INFO /home/runner/pipo_scoreboard.sv(89) @ 455: uvm_test_top.env_h.scoreboard_h [
 [PASS ] in= 39  rst=0 || out=216 
UVM_INFO /home/runner/pipo_scoreboard.sv(51) @ 455: uvm_test_top.env_h.scoreboard_h [write_drv STIM] in= 12  rst=0
UVM_INFO /home/runner/pipo_scoreboard.sv(73) @ 465: uvm_test_top.env_h.scoreboard_h [write_mon OUT ] in=227  rst=0 || out= 39 
UVM_INFO /home/runner/pipo_scoreboard.sv(89) @ 465: uvm_test_top.env_h.scoreboard_h [
 [PASS ] in=227  rst=0 || out= 39 
UVM_INFO /home/runner/pipo_scoreboard.sv(51) @ 465: uvm_test_top.env_h.scoreboard_h [write_drv STIM] in=162  rst=0
UVM_INFO /home/runner/pipo_scoreboard.sv(73) @ 475: uvm_test_top.env_h.scoreboard_h [write_mon OUT ] in= 12  rst=0 || out=227 
UVM_INFO /home/runner/pipo_scoreboard.sv(89) @ 475: uvm_test_top.env_h.scoreboard_h [
 [PASS ] in= 12  rst=0 || out=227 
UVM_INFO /home/runner/pipo_scoreboard.sv(51) @ 475: uvm_test_top.env_h.scoreboard_h [write_drv STIM] in=165  rst=0
UVM_INFO /home/runner/pipo_scoreboard.sv(73) @ 485: uvm_test_top.env_h.scoreboard_h [write_mon OUT ] in=162  rst=0 || out= 12 
UVM_INFO /home/runner/pipo_scoreboard.sv(89) @ 485: uvm_test_top.env_h.scoreboard_h [
 [PASS ] in=162  rst=0 || out= 12 
UVM_INFO /home/runner/pipo_scoreboard.sv(51) @ 485: uvm_test_top.env_h.scoreboard_h [write_drv STIM] in= 21  rst=0
UVM_INFO /home/runner/pipo_scoreboard.sv(73) @ 495: uvm_test_top.env_h.scoreboard_h [write_mon OUT ] in=165  rst=0 || out=162 
UVM_INFO /home/runner/pipo_scoreboard.sv(89) @ 495: uvm_test_top.env_h.scoreboard_h [
 [PASS ] in=165  rst=0 || out=162 
UVM_INFO /home/runner/pipo_scoreboard.sv(51) @ 495: uvm_test_top.env_h.scoreboard_h [write_drv STIM] in=242  rst=0
UVM_INFO /home/runner/pipo_scoreboard.sv(73) @ 505: uvm_test_top.env_h.scoreboard_h [write_mon OUT ] in= 21  rst=0 || out=165 
UVM_INFO /home/runner/pipo_scoreboard.sv(89) @ 505: uvm_test_top.env_h.scoreboard_h [
 [PASS ] in= 21  rst=0 || out=165 
UVM_INFO /home/runner/pipo_scoreboard.sv(51) @ 505: uvm_test_top.env_h.scoreboard_h [write_drv STIM] in= 60  rst=0
UVM_INFO /home/runner/pipo_scoreboard.sv(73) @ 515: uvm_test_top.env_h.scoreboard_h [write_mon OUT ] in=242  rst=0 || out= 21 
UVM_INFO /home/runner/pipo_scoreboard.sv(89) @ 515: uvm_test_top.env_h.scoreboard_h [
 [PASS ] in=242  rst=0 || out= 21 
UVM_INFO /home/runner/pipo_scoreboard.sv(51) @ 515: uvm_test_top.env_h.scoreboard_h [write_drv STIM] in=243  rst=0
UVM_INFO /home/runner/pipo_scoreboard.sv(73) @ 525: uvm_test_top.env_h.scoreboard_h [write_mon OUT ] in= 60  rst=0 || out=242 
UVM_INFO /home/runner/pipo_scoreboard.sv(89) @ 525: uvm_test_top.env_h.scoreboard_h [
 [PASS ] in= 60  rst=0 || out=242 
UVM_INFO /home/runner/pipo_scoreboard.sv(51) @ 525: uvm_test_top.env_h.scoreboard_h [write_drv STIM] in=  4  rst=0
UVM_INFO /home/runner/pipo_scoreboard.sv(73) @ 535: uvm_test_top.env_h.scoreboard_h [write_mon OUT ] in=243  rst=0 || out= 60 
UVM_INFO /home/runner/pipo_scoreboard.sv(89) @ 535: uvm_test_top.env_h.scoreboard_h [
 [PASS ] in=243  rst=0 || out= 60 
UVM_INFO /home/runner/pipo_scoreboard.sv(51) @ 535: uvm_test_top.env_h.scoreboard_h [write_drv STIM] in=149  rst=0
UVM_INFO /home/runner/pipo_scoreboard.sv(73) @ 545: uvm_test_top.env_h.scoreboard_h [write_mon OUT ] in=  4  rst=0 || out=243 
UVM_INFO /home/runner/pipo_scoreboard.sv(89) @ 545: uvm_test_top.env_h.scoreboard_h [
 [PASS ] in=  4  rst=0 || out=243 
UVM_INFO /home/runner/pipo_scoreboard.sv(51) @ 545: uvm_test_top.env_h.scoreboard_h [write_drv STIM] in=147  rst=0
UVM_INFO /home/runner/pipo_scoreboard.sv(73) @ 555: uvm_test_top.env_h.scoreboard_h [write_mon OUT ] in=149  rst=0 || out=  4 
UVM_INFO /home/runner/pipo_scoreboard.sv(89) @ 555: uvm_test_top.env_h.scoreboard_h [
 [PASS ] in=149  rst=0 || out=  4 
UVM_INFO /home/runner/pipo_scoreboard.sv(51) @ 555: uvm_test_top.env_h.scoreboard_h [write_drv STIM] in=254  rst=0
UVM_INFO /home/runner/pipo_scoreboard.sv(73) @ 565: uvm_test_top.env_h.scoreboard_h [write_mon OUT ] in=147  rst=0 || out=149 
UVM_INFO /home/runner/pipo_scoreboard.sv(89) @ 565: uvm_test_top.env_h.scoreboard_h [
 [PASS ] in=147  rst=0 || out=149 
UVM_INFO /home/runner/pipo_scoreboard.sv(51) @ 565: uvm_test_top.env_h.scoreboard_h [write_drv STIM] in=214  rst=0
UVM_INFO /home/runner/pipo_scoreboard.sv(73) @ 575: uvm_test_top.env_h.scoreboard_h [write_mon OUT ] in=254  rst=0 || out=147 
UVM_INFO /home/runner/pipo_scoreboard.sv(89) @ 575: uvm_test_top.env_h.scoreboard_h [
 [PASS ] in=254  rst=0 || out=147 
UVM_INFO /home/runner/pipo_scoreboard.sv(51) @ 575: uvm_test_top.env_h.scoreboard_h [write_drv STIM] in= 27  rst=0
UVM_INFO /home/runner/pipo_scoreboard.sv(73) @ 585: uvm_test_top.env_h.scoreboard_h [write_mon OUT ] in=214  rst=0 || out=254 
UVM_INFO /home/runner/pipo_scoreboard.sv(89) @ 585: uvm_test_top.env_h.scoreboard_h [
 [PASS ] in=214  rst=0 || out=254 
UVM_INFO /home/runner/pipo_scoreboard.sv(51) @ 585: uvm_test_top.env_h.scoreboard_h [write_drv STIM] in=205  rst=0
UVM_INFO /home/runner/pipo_scoreboard.sv(73) @ 595: uvm_test_top.env_h.scoreboard_h [write_mon OUT ] in= 27  rst=0 || out=214 
UVM_INFO /home/runner/pipo_scoreboard.sv(89) @ 595: uvm_test_top.env_h.scoreboard_h [
 [PASS ] in= 27  rst=0 || out=214 
UVM_INFO /home/runner/pipo_scoreboard.sv(51) @ 595: uvm_test_top.env_h.scoreboard_h [write_drv STIM] in=236  rst=0
UVM_INFO /home/runner/pipo_scoreboard.sv(73) @ 605: uvm_test_top.env_h.scoreboard_h [write_mon OUT ] in=205  rst=0 || out= 27 
UVM_INFO /home/runner/pipo_scoreboard.sv(89) @ 605: uvm_test_top.env_h.scoreboard_h [
 [PASS ] in=205  rst=0 || out= 27 
UVM_INFO /home/runner/pipo_scoreboard.sv(51) @ 605: uvm_test_top.env_h.scoreboard_h [write_drv STIM] in=120  rst=0
UVM_INFO /home/runner/pipo_scoreboard.sv(73) @ 615: uvm_test_top.env_h.scoreboard_h [write_mon OUT ] in=236  rst=0 || out=205 
UVM_INFO /home/runner/pipo_scoreboard.sv(89) @ 615: uvm_test_top.env_h.scoreboard_h [
 [PASS ] in=236  rst=0 || out=205 
UVM_INFO /home/runner/pipo_scoreboard.sv(51) @ 615: uvm_test_top.env_h.scoreboard_h [write_drv STIM] in=113  rst=0
UVM_INFO /home/runner/pipo_scoreboard.sv(73) @ 625: uvm_test_top.env_h.scoreboard_h [write_mon OUT ] in=120  rst=0 || out=236 
UVM_INFO /home/runner/pipo_scoreboard.sv(89) @ 625: uvm_test_top.env_h.scoreboard_h [
 [PASS ] in=120  rst=0 || out=236 
UVM_INFO /home/runner/pipo_scoreboard.sv(51) @ 625: uvm_test_top.env_h.scoreboard_h [write_drv STIM] in=215  rst=0
UVM_INFO /home/runner/pipo_scoreboard.sv(73) @ 635: uvm_test_top.env_h.scoreboard_h [write_mon OUT ] in=113  rst=0 || out=120 
UVM_INFO /home/runner/pipo_scoreboard.sv(89) @ 635: uvm_test_top.env_h.scoreboard_h [
 [PASS ] in=113  rst=0 || out=120 
UVM_INFO /home/runner/pipo_scoreboard.sv(51) @ 635: uvm_test_top.env_h.scoreboard_h [write_drv STIM] in=170  rst=0
UVM_INFO /home/runner/pipo_scoreboard.sv(73) @ 645: uvm_test_top.env_h.scoreboard_h [write_mon OUT ] in=215  rst=0 || out=113 
UVM_INFO /home/runner/pipo_scoreboard.sv(89) @ 645: uvm_test_top.env_h.scoreboard_h [
 [PASS ] in=215  rst=0 || out=113 
UVM_INFO /home/runner/pipo_scoreboard.sv(51) @ 645: uvm_test_top.env_h.scoreboard_h [write_drv STIM] in=234  rst=0
UVM_INFO /home/runner/pipo_scoreboard.sv(73) @ 655: uvm_test_top.env_h.scoreboard_h [write_mon OUT ] in=170  rst=0 || out=215 
UVM_INFO /home/runner/pipo_scoreboard.sv(89) @ 655: uvm_test_top.env_h.scoreboard_h [
 [PASS ] in=170  rst=0 || out=215 
UVM_INFO /home/runner/pipo_scoreboard.sv(51) @ 655: uvm_test_top.env_h.scoreboard_h [write_drv STIM] in=151  rst=0
UVM_INFO /home/runner/pipo_scoreboard.sv(73) @ 665: uvm_test_top.env_h.scoreboard_h [write_mon OUT ] in=234  rst=0 || out=170 
UVM_INFO /home/runner/pipo_scoreboard.sv(89) @ 665: uvm_test_top.env_h.scoreboard_h [
 [PASS ] in=234  rst=0 || out=170 
UVM_INFO /home/runner/pipo_scoreboard.sv(51) @ 665: uvm_test_top.env_h.scoreboard_h [write_drv STIM] in=177  rst=0
